<?xml version="1.0" encoding="utf-8"?>
<!-- Generator: Adobe Illustrator 21.0.2, SVG Export Plug-In . SVG Version: 6.00 Build 0)  -->
<svg version="1.1" id="Слой_1" xmlns="http://www.w3.org/2000/svg" xmlns:xlink="http://www.w3.org/1999/xlink" x="0px" y="0px"
	 viewBox="0 0 32.5 34.8" style="enable-background:new 0 0 32.5 34.8;" xml:space="preserve">
<style type="text/css">
	.st0{fill:#3498DB;}
</style>
<path class="st0" d="M29.4,2.8c-1.3-1.3-3.1-2.1-5.1-2.1c-1.9,0-3.7,0.7-5.1,2.1L1.7,20.5c-0.4,0.4-0.4,0.9,0,1.3
	c0.4,0.4,0.9,0.4,1.3,0L20.6,4.1c1-1,2.3-1.6,3.8-1.6c1.4,0,2.8,0.6,3.8,1.6c1,1,1.6,2.3,1.6,3.8c0,1.4-0.6,2.8-1.6,3.8L8.6,31.1
	c-1.4,1.4-3.6,1.4-5,0c-1.4-1.4-1.4-3.6,0-5L21.2,8.7c0.6-0.6,1.7-0.6,2.3,0C23.8,9,24,9.4,24,9.8c0,0.4-0.2,0.8-0.5,1.2L10.9,23.6
	c-0.2,0.2-0.3,0.4-0.3,0.6c0,0.2,0.1,0.5,0.3,0.6c0.3,0.3,0.9,0.3,1.3,0l12.6-12.6c0.7-0.7,1-1.5,1-2.4c0-0.9-0.4-1.8-1-2.4
	c-0.7-0.7-1.5-1-2.4-1c-0.9,0-1.8,0.4-2.4,1L2.4,24.9c-2.1,2.1-2.1,5.5,0,7.6c1,1,2.4,1.6,3.8,1.6s2.7-0.5,3.8-1.6l19.5-19.5
	C32.2,10.1,32.2,5.6,29.4,2.8z"/>
</svg>
