<?xml version="1.0" encoding="utf-8"?>
<!-- Generator: Adobe Illustrator 21.0.2, SVG Export Plug-In . SVG Version: 6.00 Build 0)  -->
<svg version="1.1" id="Слой_1" xmlns="http://www.w3.org/2000/svg" xmlns:xlink="http://www.w3.org/1999/xlink" x="0px" y="0px"
	 viewBox="0 0 121 39.3" style="enable-background:new 0 0 121 39.3;" xml:space="preserve">
<style type="text/css">
	.st0{fill:#FFFFFF;}
</style>
<g>
	<path class="st0" d="M34.4,33.4c0,0.7-0.1,1.1-0.4,1.1c-0.2,0-0.3-0.1-0.2-0.3c0.1-0.2,0.1-0.3,0.1-0.4c0-0.7-0.7-1.3-2.2-1.8
		c-2.3-0.8-5.4-1.2-9.2-1.2c-4.1,0-7.7,0.5-10.8,1.4c-1,0.3-1.8,0.6-2.5,0.8c-1.1,0.3-2,0.5-2.6,0.5c-1,0-1.5-0.3-1.5-1
		c0-1.3,1.2-2.4,3.5-3.4c2.5-1,5.9-1.5,10-1.5c6.4,0,10.9,0.9,13.6,2.6C33.7,30.9,34.4,32.1,34.4,33.4z M43.7,8.7
		c0,2.4-1.8,4.6-5.4,6.8c-1.4,0.8-3,1.6-4.8,2.2c-4.2,1.5-8.1,2.3-11.8,2.3c-1.4,0-2.5-0.1-3.3-0.2c-0.2,0.2-0.5,0.7-0.9,1.4
		c-0.5,0.7-0.8,1.2-0.9,1.4c-0.2,0.3-0.4,0.7-0.8,1.2c-0.4,0.5-0.6,1-0.9,1.2c-0.6,0.8-1.3,1.5-1.8,2.1c-0.9,0.9-2.2,1.4-3.7,1.4
		c-0.3,0-0.7-0.1-1.1-0.2c-0.4-0.1-0.6-0.2-0.7-0.4c-0.1-0.1-0.1-0.2-0.1-0.2c0,0,0.1,0,0.2,0c0.1,0.1,0.3,0.1,0.6,0.1
		c0.3,0,0.7,0,1.1-0.1c1.1-0.1,2.3-0.8,3.5-2c0.7-0.7,2.3-2.7,4.6-6.1c-2.2-0.5-3.6-1.3-4-2.6c-0.1-0.2,0-0.3,0-0.3
		c0.1,0,0.1,0,0.2,0.2c0.3,0.5,1.3,0.7,3,0.7c0.6,0,1.3,0,2.1-0.1H19c1.6-2.3,3.3-4.3,5-6c1.7-1.7,3.5-3.1,5.3-4.2
		c3-1.7,6-2.5,8.9-2.5c1.4,0,2.5,0.2,3.3,0.6C43,6.3,43.7,7.3,43.7,8.7z M40.4,8.9c0.3-0.5,0.4-1,0.4-1.6c0-1.2-1.4-1.8-4.2-1.8
		c-0.5,0-1.4,0.2-2.7,0.5c-1.3,0.3-2.7,0.9-4,1.5c-3.2,1.7-6.5,5-9.9,9.9c3.4-0.4,7.2-1.4,11.3-2.9C36.2,12.8,39.2,10.9,40.4,8.9z"
		/>
	<path class="st0" d="M42.1,21.4c-1.1,1.1-2,2.5-2.7,4.3c-0.7,1.7-1.1,2.9-1.1,3.6c0,0.7,0.3,1,0.8,1c0.5,0,1.5-0.4,2.7-1.2
		c1.3-0.8,2.7-1.9,4.3-3.4c0.3-0.3,0.5-0.3,0.5,0.1c0,0.1,0,0.1-0.1,0.2c-1.3,1.1-2.4,2-3.2,2.8c-0.9,0.7-1.9,1.4-3.1,2.1
		c-1.2,0.7-2.2,1-3,1c-1,0-1.7-0.2-2.1-0.6c-0.5-0.4-0.7-0.9-0.7-1.4c0-1,0.2-1.7,0.5-2.3c0.3-0.6,0.9-1.3,1.8-2.3
		c-0.3,0.2-0.8,0.6-1.4,1.2c-0.6,0.6-1.1,0.9-1.3,1.1c-0.2,0.2-0.4,0.1-0.4-0.2c0-0.2,0.2-0.5,0.6-0.8c0.4-0.3,1.4-1.2,2.8-2.6
		c1.4-1.4,2.4-2.3,2.9-2.5c0.5-0.3,0.9-0.4,1.3-0.4c0.3,0,0.6,0,0.7,0.1C42.2,21.2,42.2,21.3,42.1,21.4z M42.6,19.3
		c-0.3-0.2-0.4-0.6-0.4-1c0.1-0.5,0.3-0.9,0.7-1.4c0.4-0.5,1-0.8,1.7-0.8c0.2,0,0.4,0.1,0.7,0.3c0.2,0.2,0.3,0.5,0.3,1
		c-0.1,0.5-0.3,0.9-0.6,1.3c-0.4,0.4-0.8,0.7-1.3,0.8S42.9,19.5,42.6,19.3z"/>
	<path class="st0" d="M60.7,19.6c0,0.1,0,0.1,0,0.2c0,0.1,0,0.1-0.1,0c-0.1,0-0.2-0.1-0.2-0.1c-0.2-0.4-0.4-0.6-0.8-0.6
		c-1,0-2.7,2-5.2,5.9c-1.5,2.5-2.8,4.3-3.9,5.3c-0.5,0.5-1.2,0.9-1.9,1.1c-0.7,0.2-1.2,0.3-1.6,0.3c-0.3,0-0.6,0-0.8-0.1
		c0.4-0.6,0.9-1.6,1.4-3c0.5-1.4,0.8-2.6,1.1-3.6c0.3-1.1,0.4-1.6,0.3-1.6l-1.7,1.7c-0.9,0.9-1.7,1.7-2.6,2.3
		c-0.3,0.3-0.5,0.3-0.5,0c0-0.2,0.1-0.3,0.2-0.4c0.1-0.1,0.4-0.4,0.8-0.7c0.4-0.3,0.6-0.6,0.7-0.7c0.1-0.1,0.3-0.3,0.7-0.6
		c0.3-0.3,0.6-0.6,0.7-0.7c0.7-0.9,1.3-1.6,1.6-2.2c0.1-0.3,0.2-0.6,0.2-0.9c0-0.3-0.1-0.5-0.2-0.6c-0.1-0.1-0.2-0.2-0.1-0.3
		c0-0.3,0.3-0.4,0.7-0.2c0.9,0.4,1.4,1,1.5,1.8c0.1,0.4,0.1,1,0.1,1.7c0,0.7-0.1,1.8-0.4,3.3c-0.3,1.5-0.8,2.9-1.5,4
		c1.2-0.8,2.6-2.7,4.1-5.8c1.6-3.1,2.8-5,3.7-5.9c0.4-0.4,0.8-0.6,1.4-0.6C59.7,18.4,60.4,18.8,60.7,19.6z"/>
	<path class="st0" d="M67,25.2c1.4-0.8,2.1-1.6,2.1-2.4c0-0.8-0.5-1.2-1.4-1.2c-0.5,0-0.9,0.1-1.4,0.4c-1.1,0.5-2.2,1.4-3.2,2.6
		c-1.3,1.5-1.9,3-1.9,4.3c0,0.5,0.1,1,0.4,1.4c0.3,0.4,0.8,0.7,1.5,0.7c1.3,0,2.8-0.7,4.8-2c1.9-1.3,3.6-2.6,5-4
		c0.3-0.3,0.5-0.3,0.5,0c0,0.2-0.1,0.3-0.2,0.5c-1,0.9-1.6,1.5-2,1.8c-0.3,0.3-1,0.9-2,1.6c-1,0.8-1.8,1.3-2.4,1.7
		c-1.9,1-3.5,1.5-4.8,1.5c-1.3,0-2.4-0.3-3.1-0.9c-0.8-0.6-1.1-1.4-1.1-2.5c0-2.3,1-4.2,3-5.9s4.1-2.5,6.4-2.5c1.5,0,2.5,0.3,3,1
		c0.2,0.3,0.3,0.7,0.3,1s-0.1,0.8-0.4,1.2c-0.5,0.8-1.4,1.6-2.7,2.2c-1.3,0.6-2.6,0.9-3.7,0.9c-0.5,0-0.7,0-0.7-0.1s0-0.1,0.1-0.2
		c0.1,0,0.3-0.1,0.4-0.1C64.3,26.3,65.6,26,67,25.2z"/>
	<path class="st0" d="M103.6,10.9c0,2.4-0.5,4.8-1.6,7.1s-2.6,4.6-4.4,7c-2.3,3-5.1,5.3-8.2,7c-1.7,0.9-3.4,1.3-5.1,1.3
		c-2.4,0-4.3-0.8-5.7-2.5c-1.2-1.4-1.8-3.1-1.8-5c0-2.7,1-5.6,2.9-8.7c1.4-2.3,3.2-4.3,5.3-6.1c2.1-1.8,4-3,5.7-3.5
		c1.1-0.3,2.1-0.5,3.1-0.5c1,0,1.8,0.3,2.6,1c0.8,0.7,1.2,1.8,1.2,3.2c0,0.8-0.1,1.7-0.4,2.6c-0.1,0.3-0.2,0.4-0.3,0.2
		c-0.1-0.1,0-0.3,0-0.6c0.1-0.3,0.1-0.6,0.1-1c0-1.2-0.7-1.8-2.1-1.8c-2,0-4.5,1-7.5,2.9s-5.2,3.9-6.7,6c-2.1,2.8-3.1,5.4-3.1,7.6
		c0,2.5,1.4,3.9,4.2,4.4c0.4,0.1,0.8,0.1,1.2,0.1c1.5,0,3.2-0.4,5.3-1.1c3.7-1.3,6.8-3.4,9.1-6.3c3.1-3.8,4.6-8.1,4.6-12.8
		c0-1.8-0.2-3.1-0.6-3.9c-0.4-0.8-0.8-1.3-1.1-1.5c-0.3-0.2-0.7-0.2-0.9-0.1c-0.3,0.1-0.4,0.1-0.4-0.1c0-0.3,0.4-0.4,1-0.4
		c0.6,0,1.3,0.3,1.9,0.8C103.1,6.8,103.6,8.4,103.6,10.9z"/>
	<path class="st0" d="M110.1,22.5c0.4-0.4,0.6-0.8,0.6-1c0-0.2-0.2-0.4-0.7-0.4c-0.5,0-1.3,0.5-2.3,1.4c-1,0.9-2.2,2.3-3.6,4.3
		c-1.4,2-2.4,3.4-3,4.1c-0.6,0.7-1.2,1.1-1.7,1.1c-0.1,0-0.1,0-0.2,0c-0.7,0-1.4-0.3-2-0.8c0.2-0.2,0.5-0.8,1.2-1.6
		c1.4-1.7,2.5-3.3,3.6-4.8c-1.1,1.1-2.1,2-2.9,2.7c-0.3,0.2-0.4,0.2-0.5,0c0-0.2,0-0.4,0.2-0.5c0.2-0.1,0.4-0.4,0.8-0.7
		c0.4-0.3,0.6-0.6,0.7-0.7c0.1-0.1,0.3-0.3,0.7-0.6c0.3-0.3,0.6-0.6,0.7-0.7c0.7-0.9,1.3-1.6,1.6-2.2c0.1-0.3,0.2-0.6,0.2-0.9
		c0-0.3-0.1-0.5-0.2-0.6c-0.1-0.1-0.2-0.2-0.1-0.3c0-0.2,0.1-0.3,0.3-0.3c0.1,0,0.2,0,0.4,0.1c0.8,0.4,1.2,1.1,1.2,2.2
		c0,1.1-0.2,2.3-0.7,3.5c1-1.4,1.8-2.3,2.4-2.9c1.4-1.5,2.7-2.3,4.1-2.3c1.3,0,2.1,0.6,2.3,1.7c0,0.2,0,0.4,0,0.7
		c0,0.3-0.1,0.8-0.4,1.3c-0.3,0.6-0.8,1.5-1.8,2.8c-0.9,1.3-1.5,2.1-1.6,2.4c-0.1,0.3-0.2,0.6-0.1,0.7c0.1,0.2,0.2,0.3,0.4,0.3
		c0.3,0.1,0.9-0.2,1.6-0.6c1.1-0.8,2.5-2,4.2-3.6c0.3-0.3,0.4-0.3,0.4,0.1c0,0.1-0.1,0.3-0.2,0.4c-2.6,2.4-4.5,3.9-5.8,4.5
		c-1.5,0.7-2.6,0.9-3.4,0.4c-0.5-0.3-0.8-0.8-0.8-1.3c0-0.6,0.1-1.2,0.3-1.7C106.4,27,107.8,25.1,110.1,22.5z"/>
</g>
</svg>
